%YAML 1.1
%TAG !u! tag:unity3d.com,2011:
--- !u!1001 &1344725045397563478
PrefabInstance:
  m_ObjectHideFlags: 0
  serializedVersion: 2
  m_Modification:
    m_TransformParent: {fileID: 0}
    m_Modifications:
    - target: {fileID: 3688805197003976393, guid: 7fdd08f654f13be41a0bde4c171023a7, type: 3}
      propertyPath: m_Name
      value: Klatka
      objectReference: {fileID: 0}
    - target: {fileID: 3688805197003976398, guid: 7fdd08f654f13be41a0bde4c171023a7, type: 3}
      propertyPath: m_RootOrder
      value: 0
      objectReference: {fileID: 0}
    - target: {fileID: 3688805197003976398, guid: 7fdd08f654f13be41a0bde4c171023a7, type: 3}
      propertyPath: m_LocalScale.x
      value: 2.1463
      objectReference: {fileID: 0}
    - target: {fileID: 3688805197003976398, guid: 7fdd08f654f13be41a0bde4c171023a7, type: 3}
      propertyPath: m_LocalScale.y
      value: 3.048
      objectReference: {fileID: 0}
    - target: {fileID: 3688805197003976398, guid: 7fdd08f654f13be41a0bde4c171023a7, type: 3}
      propertyPath: m_LocalScale.z
      value: 2.9684858
      objectReference: {fileID: 0}
    - target: {fileID: 3688805197003976398, guid: 7fdd08f654f13be41a0bde4c171023a7, type: 3}
      propertyPath: m_LocalPosition.x
      value: -25.15
      objectReference: {fileID: 0}
    - target: {fileID: 3688805197003976398, guid: 7fdd08f654f13be41a0bde4c171023a7, type: 3}
      propertyPath: m_LocalPosition.y
      value: 1.29
      objectReference: {fileID: 0}
    - target: {fileID: 3688805197003976398, guid: 7fdd08f654f13be41a0bde4c171023a7, type: 3}
      propertyPath: m_LocalPosition.z
      value: -3.9
      objectReference: {fileID: 0}
    - target: {fileID: 3688805197003976398, guid: 7fdd08f654f13be41a0bde4c171023a7, type: 3}
      propertyPath: m_LocalRotation.w
      value: 1
      objectReference: {fileID: 0}
    - target: {fileID: 3688805197003976398, guid: 7fdd08f654f13be41a0bde4c171023a7, type: 3}
      propertyPath: m_LocalRotation.x
      value: 0
      objectReference: {fileID: 0}
    - target: {fileID: 3688805197003976398, guid: 7fdd08f654f13be41a0bde4c171023a7, type: 3}
      propertyPath: m_LocalRotation.y
      value: 0
      objectReference: {fileID: 0}
    - target: {fileID: 3688805197003976398, guid: 7fdd08f654f13be41a0bde4c171023a7, type: 3}
      propertyPath: m_LocalRotation.z
      value: 0
      objectReference: {fileID: 0}
    - target: {fileID: 3688805197003976398, guid: 7fdd08f654f13be41a0bde4c171023a7, type: 3}
      propertyPath: m_LocalEulerAnglesHint.x
      value: 0
      objectReference: {fileID: 0}
    - target: {fileID: 3688805197003976398, guid: 7fdd08f654f13be41a0bde4c171023a7, type: 3}
      propertyPath: m_LocalEulerAnglesHint.y
      value: 0
      objectReference: {fileID: 0}
    - target: {fileID: 3688805197003976398, guid: 7fdd08f654f13be41a0bde4c171023a7, type: 3}
      propertyPath: m_LocalEulerAnglesHint.z
      value: 0
      objectReference: {fileID: 0}
    - target: {fileID: 3688805197003976399, guid: 7fdd08f654f13be41a0bde4c171023a7, type: 3}
      propertyPath: activeDialogue.text
      value: Ciekawe kogo trzymali w tej klatce
      objectReference: {fileID: 0}
    - target: {fileID: 3688805197003976399, guid: 7fdd08f654f13be41a0bde4c171023a7, type: 3}
      propertyPath: activeDialogue.narrator
      value: "Miros\u0142aw \u0106wiartka"
      objectReference: {fileID: 0}
    m_RemovedComponents: []
  m_SourcePrefab: {fileID: 100100000, guid: 7fdd08f654f13be41a0bde4c171023a7, type: 3}
