%YAML 1.1
%TAG !u! tag:unity3d.com,2011:
--- !u!162 &1
EditorUserSettings:
  m_ObjectHideFlags: 0
  serializedVersion: 4
  m_ConfigSettings:
    RecentlyUsedScenePath-0:
      value: 22424703114646680e0b0227036c6d1f191a0b651f3c2331213d1561acf53a31f6fe
      flags: 0
    RecentlyUsedScenePath-1:
      value: 22424703114646680e0b0227036c6d1f191a0b65002d30353f3a2203f7fa2e34e7a923e7ee2e26
      flags: 0
    RecentlyUsedScenePath-2:
      value: 22424703114646680e0b0227036c6d1f191a0b651f3c2331213d1560acf53a31f6fe
      flags: 0
    RecentlyUsedScenePath-3:
      value: 22424703114646680e0b0227036c6d1f191a0b651f3c2331213d1562acf53a31f6fe
      flags: 0
    RecentlyUsedScenePath-4:
      value: 22424703114646680e0b0227036c6d1f191a0b650a21213839785326ece92021
      flags: 0
    RecentlyUsedScenePath-5:
      value: 22424703114646680e0b0227036c6d1f191a0b650a21283121163f3cf1f30b1eebe03efda92f31352d1b
      flags: 0
    RecentlyUsedScenePath-6:
      value: 22424703114646680e0b0227036c6a39592408262d3b2e032e3b1836ecae2136ebf32f
      flags: 0
    RecentlyUsedScenePath-7:
      value: 22424703114646680e0b0227036c6a3959201124623d28393930
      flags: 0
    RecentlyUsedScenePath-8:
      value: 22424703114646680e0b0227036c6d1f191a0b6518212a353e162d26f8fa383dacf238e0f323
      flags: 0
    RecentlyUsedScenePath-9:
      value: 22424703114646680e0b0227036c72111f192b292926237e38271427fb
      flags: 0
    vcSharedLogLevel:
      value: 0d5e400f0650
      flags: 0
  m_VCAutomaticAdd: 1
  m_VCDebugCom: 0
  m_VCDebugCmd: 0
  m_VCDebugOut: 0
  m_SemanticMergeMode: 2
  m_VCShowFailedCheckout: 1
  m_VCOverwriteFailedCheckoutAssets: 1
  m_VCProjectOverlayIcons: 1
  m_VCHierarchyOverlayIcons: 1
  m_VCOtherOverlayIcons: 1
  m_VCAllowAsyncUpdate: 1
